{
    "@atlassian/clientside-extensions-registry": {
        "dependency": "com.atlassian.plugins.atlassian-clientside-extensions-runtime:runtime",
        "import": {
            "var": "require('@atlassian/clientside-extensions-registry')",
            "amd": "@atlassian/clientside-extensions-registry"
        }
    }
}
